Dados simulados • vet
…
Amostras independentes

tab_amostra_independente <- bind_rows(
  tab_custo,
  tab_producao,
  tab_preco
)

tab_amostra_independente
#> # A tibble: 120,000 × 5
#>    cd_var nm_var            cd_distribuicao nm_distribuicao vl_amostra
#>    <chr>  <chr>             <chr>           <chr>                <dbl>
#>  1 custo  Custo de formação unif            unif                 9451.
#>  2 custo  Custo de formação unif            unif                15460.
#>  3 custo  Custo de formação unif            unif                10908.
#>  4 custo  Custo de formação unif            unif                16596.
#>  5 custo  Custo de formação unif            unif                17286.
#>  6 custo  Custo de formação unif            unif                 6547.
#>  7 custo  Custo de formação unif            unif                12337.
#>  8 custo  Custo de formação unif            unif                16709.
#>  9 custo  Custo de formação unif            unif                12617.
#> 10 custo  Custo de formação unif            unif                11479.
#> # ℹ 119,990 more rows
…
}

Dados dependentes

tab_amostra_dependente <- bind_rows(lst_amostra_dependente)
tab_amostra_dependente
#> # A tibble: 1,600,000 × 5
#>    cd_var nm_var            cd_marginais vl_correlacao vl_amostra
#>    <chr>  <chr>             <glue>               <dbl>      <dbl>
#>  1 custo  Custo de formação unif - unif            0.1     13452.
#>  2 custo  Custo de formação unif - unif            0.1     15332.
#>  3 custo  Custo de formação unif - unif            0.1     14547.
#>  4 custo  Custo de formação unif - unif            0.1     14629.
#>  5 custo  Custo de formação unif - unif            0.1     11047.
#>  6 custo  Custo de formação unif - unif            0.1     13049.
#>  7 custo  Custo de formação unif - unif            0.1      7737.
#>  8 custo  Custo de formação unif - unif            0.1     16497.
#>  9 custo  Custo de formação unif - unif            0.1     14678.
#> 10 custo  Custo de formação unif - unif            0.1     15353.
#> # ℹ 1,599,990 more rows
…
